Extracting data from fotmob • worldfootballR
…
There is one nested element in the returned data.frame for on_goal_shot. As with the nested elements returned by fotmob_get_matches_by_date, columns in nested elements have camel case names. (Here, it’s only zoomRatio.)

NOTE: The below code block depends on tidyr 1.2.0

match_shots %>%
  dplyr::select(on_goal_shot) %>%
  tidyr::unnest_wider(
    on_goal_shot
  )
#> # A tibble: 43 × 3
#>        x      y zoomRatio
#>    <dbl>  <dbl>     <dbl>
#>  1 1.26  0.323      1    
#>  2 0.576 0.323      1    
#>  3 1.44  0.677      0.451
#>  4 0.879 0.323      1    
#>  5 1.16  0.323      1    
#>  6 1.26  0.216      1    
#>  7 0     0.0255     0.181
#>  8 1.14  0.323      1    
#>  9 1.14  0.323      1    
#> 10 1.38  0.677      0.461
#> # … with 33 more rows
…
