Extracting data from fotmob • worldfootballR
…
International tournament data can be retrieved, during the right time
of year.

## Can only check on CL after group stages and briefly after the final.
m <- lubridate::month(Sys.Date())
if(m >= 1 && m <= 5) {
  fotmob_get_season_stats(
    league_id = 42,
    season_name = "2020/2021",
    stat_name = "Expected goals",
    team_or_player = "team"
  )
}
#> # A tibble: 32 × 20
#>    country league_name   leagu…¹ seaso…² seaso…³ stat_…⁴ stat_…⁵ stat$…⁶ parti…⁷
#>    <chr>   <chr>           <int> <chr>   <chr>   <chr>   <chr>   <chr>   <chr>  
#>  1 INT     Champions Le…      42 2020/2… 15237   Champi… Expect… expect… Chelsea
#>  2 INT     Champions Le…      42 2020/2… 15237   Champi… Expect… expect… Manche…
#>  3 INT     Champions Le…      42 2020/2… 15237   Champi… Expect… expect… Bayern…
#>  4 INT     Champions Le…      42 2020/2… 15237   Champi… Expect… expect… Paris …
#>  5 INT     Champions Le…      42 2020/2… 15237   Champi… Expect… expect… Barcel…
#>  6 INT     Champions Le…      42 2020/2… 15237   Champi… Expect… expect… Real M…
#>  7 INT     Champions Le…      42 2020/2… 15237   Champi… Expect… expect… Juvent…
#>  8 INT     Champions Le…      42 2020/2… 15237   Champi… Expect… expect… Liverp…
#>  9 INT     Champions Le…      42 2020/2… 15237   Champi… Expect… expect… Boruss…
#> 10 INT     Champions Le…      42 2020/2… 15237   Champi… Expect… expect… Lazio  
#> # … with 22 more rows, 11 more variables: particiant_id <int>, team_id <int>,
#> #   team_color <chr>, stat_value <dbl>, sub_stat_value <dbl>,
#> #   minutes_played <int>, matches_played <int>, stat_value_count <int>,
#> #   rank <int>, participant_country_code <chr>, team_name <lgl>, and
#> #   abbreviated variable names ¹​league_id, ²​season_name, ³​season_id,
#> #   ⁴​stat_league_name, ⁵​stat_name, ⁶​stat$stat, ⁷​participant_name
…
Data can even be retrieved for past seasons.

fotmob_get_league_matches(
  country = "GER",
  league_name = "1. Bundesliga",
  season = "2020/2021"
)
#> # A tibble: 306 × 7
#>    round round_name page_url                       id    home$…¹ away$…² statu…³
#>    <lgl> <lgl>      <chr>                          <chr> <chr>   <chr>   <chr>  
#>  1 NA    NA         /match/3399144/matchfacts/bay… 3399… Bayern… Schalk… 2020-0…
#>  2 NA    NA         /match/3399150/matchfacts/1-f… 3399… 1. FC … TSG Ho… 2020-0…
#>  3 NA    NA         /match/3399148/matchfacts/ein… 3399… Eintra… Armini… 2020-0…
#>  4 NA    NA         /match/3399151/matchfacts/wer… 3399… Werder… Hertha… 2020-0…
#>  5 NA    NA         /match/3399149/matchfacts/uni… 3399… Union … FC Aug… 2020-0…
#>  6 NA    NA         /match/3399152/matchfacts/vfb… 3399… VfB St… SC Fre… 2020-0…
#>  7 NA    NA         /match/3399145/matchfacts/bor… 3399… Boruss… Boruss… 2020-0…
#>  8 NA    NA         /match/3399146/matchfacts/rb-… 3399… RB Lei… Mainz … 2020-0…
#>  9 NA    NA         /match/3399147/matchfacts/wol… 3399… Wolfsb… Bayer … 2020-0…
#> 10 NA    NA         /match/3399169/matchfacts/her… 3399… Hertha… Eintra… 2020-0…
#> # … with 296 more rows, 9 more variables: home$shortName <chr>, $id <chr>,
#> #   away$shortName <chr>, $id <chr>, status$finished <lgl>, $started <lgl>,
#> #   $cancelled <lgl>, $scoreStr <chr>, $reason <df[,2]>, and abbreviated
#> #   variable names ¹​home$name, ²​away$name, ³​status$utcTime
…
