Load Scraped Data Functions • worldfootballR
…
Load FBref match shooting

load_fb_match_shooting() can be used to load pre-scraped
match shooting logs from FBref. This is the load function equivalent of
fb_match_shooting(). Only a handful of leagues are
supported.

## 2018 - current season for EPL
load_fb_match_shooting(
  country = "ENG",
  gender = "M",
  tier = "1st"
)
#> # A tibble: 67,575 × 23
#>    MatchURL     Date  Squad Home_Away Match_Half Minute Player Player_Href xG   
#>    <chr>        <chr> <chr> <chr>          <dbl> <chr>  <chr>  <chr>       <chr>
#>  1 https://fbr… 2017… Arse… Home               1 2      Alexa… /en/player… 0.06 
#>  2 https://fbr… 2017… Arse… Home               1 8      Alex … /en/player… 0.04 
#>  3 https://fbr… 2017… Arse… Home               1 14     Alex … /en/player… 0.03 
#>  4 https://fbr… 2017… Arse… Home               1 22     Danny… /en/player… 0.34 
#>  5 https://fbr… 2017… Arse… Home               1 22     Grani… /en/player… 0.02 
#>  6 https://fbr… 2017… Arse… Home               1 26     Danny… /en/player… 0.07 
#>  7 https://fbr… 2017… Arse… Home               1 27     Sead … /en/player… 0.05 
#>  8 https://fbr… 2017… Arse… Home               1 27     Moham… /en/player… 0.01 
#>  9 https://fbr… 2017… Arse… Home               1 38     Grani… /en/player… 0.02 
#> 10 https://fbr… 2017… Arse… Home               1 45+2   Alexa… /en/player… 0.07 
#> # ℹ 67,565 more rows
#> # ℹ 14 more variables: PSxG <chr>, Outcome <chr>, Distance <chr>,
#> #   `Body Part` <chr>, Notes <chr>, Player_SCA_1 <chr>, Event_SCA_1 <chr>,
#> #   Player_SCA_2 <chr>, Event_SCA_2 <chr>, Competition_Name <chr>,
#> #   Gender <chr>, Country <chr>, Tier <chr>, Season_End_Year <int>

## just 2019, for multiple leagues at the same time
load_fb_match_shooting(
  country = c("ITA", "ESP"),
  gender = "M",
  tier = "1st",
  season_end_year = 2019
)
#> # A tibble: 19,810 × 23
#>    MatchURL     Date  Squad Home_Away Match_Half Minute Player Player_Href xG   
#>    <chr>        <chr> <chr> <chr>          <dbl> <chr>  <chr>  <chr>       <chr>
#>  1 https://fbr… 2018… Chie… Home               1 15     Ivan … /en/player… 0.02 
#>  2 https://fbr… 2018… Chie… Home               1 22     Ivan … /en/player… 0.02 
#>  3 https://fbr… 2018… Chie… Home               1 38     Mariu… /en/player… 0.23 
#>  4 https://fbr… 2018… Chie… Home               2 56     Emanu… /en/player… 0.79 
#>  5 https://fbr… 2018… Chie… Home               2 67     Ivan … /en/player… 0.03 
#>  6 https://fbr… 2018… Chie… Home               2 84     Fabri… /en/player… 0.02 
#>  7 https://fbr… 2018… Juve… Away               1 3      Sami … /en/player… 0.20 
#>  8 https://fbr… 2018… Juve… Away               1 5      Paulo… /en/player… 0.04 
#>  9 https://fbr… 2018… Juve… Away               1 6      Sami … /en/player… 0.07 
#> 10 https://fbr… 2018… Juve… Away               1 9      João … /en/player… 0.66 
#> # ℹ 19,800 more rows
#> # ℹ 14 more variables: PSxG <chr>, Outcome <chr>, Distance <chr>,
#> #   `Body Part` <chr>, Notes <chr>, Player_SCA_1 <chr>, Event_SCA_1 <chr>,
#> #   Player_SCA_2 <chr>, Event_SCA_2 <chr>, Competition_Name <chr>,
#> #   Gender <chr>, Country <chr>, Tier <chr>, Season_End_Year <int>

Load FBref match summary

load_fb_match_summary() can be used to load pre-scraped
match summaries from FBref. This is the load function equivalent of
fb_match_summary(). Only a handful of leagues are
supported.

## 2018 - current season for EPL
load_fb_match_summary(
  country = "ENG",
  gender = "M",
  tier = "1st"
)
#> # A tibble: 33,923 × 33
#>    MatchURL      League Match_Date Matchweek Home_Team Home_Formation Home_Score
#>    <chr>         <chr>  <chr>      <chr>     <chr>     <chr>               <dbl>
#>  1 https://fbre… Premi… 2017-08-11 Premier … Arsenal   3-4-3                   4
#>  2 https://fbre… Premi… 2017-08-11 Premier … Arsenal   3-4-3                   4
#>  3 https://fbre… Premi… 2017-08-11 Premier … Arsenal   3-4-3                   4
#>  4 https://fbre… Premi… 2017-08-11 Premier … Arsenal   3-4-3                   4
#>  5 https://fbre… Premi… 2017-08-11 Premier … Arsenal   3-4-3                   4
#>  6 https://fbre… Premi… 2017-08-11 Premier … Arsenal   3-4-3                   4
#>  7 https://fbre… Premi… 2017-08-11 Premier … Arsenal   3-4-3                   4
#>  8 https://fbre… Premi… 2017-08-11 Premier … Arsenal   3-4-3                   4
#>  9 https://fbre… Premi… 2017-08-11 Premier … Arsenal   3-4-3                   4
#> 10 https://fbre… Premi… 2017-08-11 Premier … Arsenal   3-4-3                   4
#> # ℹ 33,913 more rows
#> # ℹ 26 more variables: Home_xG <dbl>, Home_Goals <chr>,
#> #   Home_Yellow_Cards <chr>, Home_Red_Cards <chr>, Away_Team <chr>,
#> #   Away_Formation <chr>, Away_Score <dbl>, Away_xG <dbl>, Away_Goals <chr>,
#> #   Away_Yellow_Cards <chr>, Away_Red_Cards <chr>, Game_URL <chr>, Team <chr>,
#> #   Home_Away <chr>, Event_Time <dbl>, Is_Pens <lgl>, Event_Half <dbl>,
#> #   Event_Type <chr>, Event_Players <chr>, Score_Progression <chr>, …

## just 2019, for multiple leagues at the same time
load_fb_match_summary(
  country = c("ITA", "ESP"),
  gender = "M",
  tier = "1st",
  season_end_year = 2019
)
#> # A tibble: 10,311 × 33
#>    MatchURL      League Match_Date Matchweek Home_Team Home_Formation Home_Score
#>    <chr>         <chr>  <chr>      <chr>     <chr>     <chr>               <dbl>
#>  1 https://fbre… Serie… 2018-08-18 Serie A … Chievo    4-3-3                   2
#>  2 https://fbre… Serie… 2018-08-18 Serie A … Chievo    4-3-3                   2
#>  3 https://fbre… Serie… 2018-08-18 Serie A … Chievo    4-3-3                   2
#>  4 https://fbre… Serie… 2018-08-18 Serie A … Chievo    4-3-3                   2
#>  5 https://fbre… Serie… 2018-08-18 Serie A … Chievo    4-3-3                   2
#>  6 https://fbre… Serie… 2018-08-18 Serie A … Chievo    4-3-3                   2
#>  7 https://fbre… Serie… 2018-08-18 Serie A … Chievo    4-3-3                   2
#>  8 https://fbre… Serie… 2018-08-18 Serie A … Chievo    4-3-3                   2
#>  9 https://fbre… Serie… 2018-08-18 Serie A … Chievo    4-3-3                   2
#> 10 https://fbre… Serie… 2018-08-18 Serie A … Chievo    4-3-3                   2
#> # ℹ 10,301 more rows
#> # ℹ 26 more variables: Home_xG <dbl>, Home_Goals <chr>,
#> #   Home_Yellow_Cards <chr>, Home_Red_Cards <chr>, Away_Team <chr>,
#> #   Away_Formation <chr>, Away_Score <dbl>, Away_xG <dbl>, Away_Goals <chr>,
#> #   Away_Yellow_Cards <chr>, Away_Red_Cards <chr>, Game_URL <chr>, Team <chr>,
#> #   Home_Away <chr>, Event_Time <dbl>, Is_Pens <lgl>, Event_Half <dbl>,
#> #   Event_Type <chr>, Event_Players <chr>, Score_Progression <chr>, …
…
load_fb_advanced_match_stats() can be used to load
pre-scraped match summaries from FBref. This is the load function
equivalent of fb_advanced_match_stats(). Not all leagues
and stat types are supported.

## 2018 - current season for EPL
load_fb_advanced_match_stats(
  country = "ENG",
  gender = "M",
  tier = "1st",
  stat_type = "summary",
  team_or_player = "player"
)
#> # A tibble: 74,985 × 58
#>    MatchURL      League Match_Date Matchweek Home_Team Home_Formation Home_Score
#>    <chr>         <chr>  <chr>      <chr>     <chr>     <chr>               <dbl>
#>  1 https://fbre… Premi… 2017-08-11 Premier … Arsenal   3-4-3                   4
#>  2 https://fbre… Premi… 2017-08-11 Premier … Arsenal   3-4-3                   4
#>  3 https://fbre… Premi… 2017-08-11 Premier … Arsenal   3-4-3                   4
#>  4 https://fbre… Premi… 2017-08-11 Premier … Arsenal   3-4-3                   4
#>  5 https://fbre… Premi… 2017-08-11 Premier … Arsenal   3-4-3                   4
#>  6 https://fbre… Premi… 2017-08-11 Premier … Arsenal   3-4-3                   4
#>  7 https://fbre… Premi… 2017-08-11 Premier … Arsenal   3-4-3                   4
#>  8 https://fbre… Premi… 2017-08-11 Premier … Arsenal   3-4-3                   4
#>  9 https://fbre… Premi… 2017-08-11 Premier … Arsenal   3-4-3                   4
#> 10 https://fbre… Premi… 2017-08-11 Premier … Arsenal   3-4-3                   4
#> # ℹ 74,975 more rows
#> # ℹ 51 more variables: Home_xG <dbl>, Home_Goals <chr>,
#> #   Home_Yellow_Cards <chr>, Home_Red_Cards <chr>, Away_Team <chr>,
#> #   Away_Formation <chr>, Away_Score <dbl>, Away_xG <dbl>, Away_Goals <chr>,
#> #   Away_Yellow_Cards <chr>, Away_Red_Cards <chr>, Game_URL <chr>, Team <chr>,
#> #   Home_Away <chr>, Player <chr>, Player_Href <chr>, Player_Num <dbl>,
#> #   Nation <chr>, Pos <chr>, Age <chr>, Min <dbl>, Gls <dbl>, Ast <dbl>, …

## just 2019, for multiple leagues at the same time
load_fb_advanced_match_stats(
  country = c("ITA", "ESP"),
  gender = "M",
  tier = "1st",
  season_end_year = 2019,
  stat_type = "defense",
  team_or_player = "player"
)
#> # A tibble: 21,106 × 49
#>    MatchURL      League Match_Date Matchweek Home_Team Home_Formation Home_Score
#>    <chr>         <chr>  <chr>      <chr>     <chr>     <chr>               <dbl>
#>  1 https://fbre… Serie… 2018-08-18 Serie A … Chievo    4-3-3                   2
#>  2 https://fbre… Serie… 2018-08-18 Serie A … Chievo    4-3-3                   2
#>  3 https://fbre… Serie… 2018-08-18 Serie A … Chievo    4-3-3                   2
#>  4 https://fbre… Serie… 2018-08-18 Serie A … Chievo    4-3-3                   2
#>  5 https://fbre… Serie… 2018-08-18 Serie A … Chievo    4-3-3                   2
#>  6 https://fbre… Serie… 2018-08-18 Serie A … Chievo    4-3-3                   2
#>  7 https://fbre… Serie… 2018-08-18 Serie A … Chievo    4-3-3                   2
#>  8 https://fbre… Serie… 2018-08-18 Serie A … Chievo    4-3-3                   2
#>  9 https://fbre… Serie… 2018-08-18 Serie A … Chievo    4-3-3                   2
#> 10 https://fbre… Serie… 2018-08-18 Serie A … Chievo    4-3-3                   2
#> # ℹ 21,096 more rows
#> # ℹ 42 more variables: Home_xG <dbl>, Home_Goals <chr>,
#> #   Home_Yellow_Cards <chr>, Home_Red_Cards <chr>, Away_Team <chr>,
#> #   Away_Formation <chr>, Away_Score <dbl>, Away_xG <dbl>, Away_Goals <chr>,
#> #   Away_Yellow_Cards <chr>, Away_Red_Cards <chr>, Game_URL <chr>, Team <chr>,
#> #   Home_Away <chr>, Player <chr>, Player_Href <chr>, Player_Num <dbl>,
#> #   Nation <chr>, Pos <chr>, Age <chr>, Min <dbl>, Tkl_Tackles <dbl>, …
…
